<?xml version="1.0" encoding="UTF-8" standalone="no"?>
<!-- Generator: Adobe Illustrator 21.0.2, SVG Export Plug-In . SVG Version: 6.00 Build 0)  -->

<svg
   xmlns:dc="http://purl.org/dc/elements/1.1/"
   xmlns:cc="http://creativecommons.org/ns#"
   xmlns:rdf="http://www.w3.org/1999/02/22-rdf-syntax-ns#"
   xmlns:svg="http://www.w3.org/2000/svg"
   xmlns="http://www.w3.org/2000/svg"
   xmlns:sodipodi="http://sodipodi.sourceforge.net/DTD/sodipodi-0.dtd"
   xmlns:inkscape="http://www.inkscape.org/namespaces/inkscape"
   version="1.1"
   id="Layer_1"
   x="0px"
   y="0px"
   viewBox="0 0 50 50"
   xml:space="preserve"
   sodipodi:docname="bar chart-soon.svg"
   width="50"
   height="50"
   inkscape:version="0.92.3 (2405546, 2018-03-11)"><metadata
   id="metadata5598"><rdf:RDF><cc:Work
       rdf:about=""><dc:format>image/svg+xml</dc:format><dc:type
         rdf:resource="http://purl.org/dc/dcmitype/StillImage" /><dc:title></dc:title></cc:Work></rdf:RDF></metadata><defs
   id="defs5596" /><sodipodi:namedview
   pagecolor="#ffffff"
   bordercolor="#666666"
   borderopacity="1"
   objecttolerance="10"
   gridtolerance="10"
   guidetolerance="10"
   inkscape:pageopacity="0"
   inkscape:pageshadow="2"
   inkscape:window-width="1366"
   inkscape:window-height="705"
   id="namedview5594"
   showgrid="false"
   inkscape:zoom="5.9"
   inkscape:cx="45.748147"
   inkscape:cy="20"
   inkscape:window-x="-8"
   inkscape:window-y="-8"
   inkscape:window-maximized="1"
   inkscape:current-layer="Layer_1" />


<text
   xml:space="preserve"
   style="font-style:normal;font-weight:normal;font-size:10.38160229px;line-height:1.25;font-family:sans-serif;letter-spacing:0px;word-spacing:0px;fill:#000000;fill-opacity:1;stroke:none;stroke-width:0.25954005"
   x="11.259958"
   y="48.414429"
   id="text6153"><tspan
     sodipodi:role="line"
     id="tspan6151"
     x="11.259958"
     y="48.414429"
     style="stroke-width:0.25954005">Soon</tspan></text>
<g
   transform="translate(5.5932204,0.33898305)"
   id="g7163"><rect
     x="15.5"
     y="20.5"
     style="fill:#dff0fe"
     width="9"
     height="17"
     id="rect7157" /><g
     id="g7161"><path
       inkscape:connector-curvature="0"
       style="fill:#4788c7"
       d="M 24,21 V 37 H 16 V 21 h 8 m 1,-1 H 15 v 18 h 10 z"
       id="path7159" /></g></g><g
   transform="translate(5.5932204,0.33898305)"
   id="g7171"><rect
     x="28.5"
     y="2.5"
     style="fill:#dff0fe"
     width="9"
     height="35"
     id="rect7165" /><g
     id="g7169"><path
       inkscape:connector-curvature="0"
       style="fill:#4788c7"
       d="M 37,3 V 37 H 29 V 3 h 8 M 38,2 H 28 v 36 h 10 z"
       id="path7167" /></g></g><g
   transform="translate(5.5932204,0.33898305)"
   id="g7179"><rect
     x="2.5"
     y="10.5"
     style="fill:#dff0fe"
     width="9"
     height="27"
     id="rect7173" /><g
     id="g7177"><path
       inkscape:connector-curvature="0"
       style="fill:#4788c7"
       d="M 11,11 V 37 H 3 V 11 h 8 m 1,-1 H 2 v 28 h 10 z"
       id="path7175" /></g></g></svg>