<?xml version="1.0" encoding="UTF-8" standalone="no"?>
<!-- Generator: Adobe Illustrator 21.0.2, SVG Export Plug-In . SVG Version: 6.00 Build 0)  -->

<svg
   xmlns:dc="http://purl.org/dc/elements/1.1/"
   xmlns:cc="http://creativecommons.org/ns#"
   xmlns:rdf="http://www.w3.org/1999/02/22-rdf-syntax-ns#"
   xmlns:svg="http://www.w3.org/2000/svg"
   xmlns="http://www.w3.org/2000/svg"
   xmlns:sodipodi="http://sodipodi.sourceforge.net/DTD/sodipodi-0.dtd"
   xmlns:inkscape="http://www.inkscape.org/namespaces/inkscape"
   version="1.1"
   id="Layer_1"
   x="0px"
   y="0px"
   viewBox="0 0 50 50"
   xml:space="preserve"
   sodipodi:docname="map-soon.svg"
   width="50"
   height="50"
   inkscape:version="0.92.3 (2405546, 2018-03-11)"><metadata
   id="metadata5598"><rdf:RDF><cc:Work
       rdf:about=""><dc:format>image/svg+xml</dc:format><dc:type
         rdf:resource="http://purl.org/dc/dcmitype/StillImage" /><dc:title></dc:title></cc:Work></rdf:RDF></metadata><defs
   id="defs5596" /><sodipodi:namedview
   pagecolor="#ffffff"
   bordercolor="#666666"
   borderopacity="1"
   objecttolerance="10"
   gridtolerance="10"
   guidetolerance="10"
   inkscape:pageopacity="0"
   inkscape:pageshadow="2"
   inkscape:window-width="1366"
   inkscape:window-height="705"
   id="namedview5594"
   showgrid="false"
   inkscape:zoom="5.9"
   inkscape:cx="45.748147"
   inkscape:cy="20"
   inkscape:window-x="-8"
   inkscape:window-y="-8"
   inkscape:window-maximized="1"
   inkscape:current-layer="Layer_1" />

<g
   id="g6149"
   transform="translate(5.2542373,-3.6440678)"><g
     transform="translate(0,5)"
     id="g5589">
	<g
   id="g5583">
		<polygon
   id="polygon5581"
   points="13.994,2.525 25.994,6.525 38.5,2.677 38.5,33.631 26.006,37.475 14.006,33.475 1.5,37.323 1.5,6.369 "
   style="fill:#dff0fe" />
	</g>
	<g
   id="g5587">
		<path
   inkscape:connector-curvature="0"
   id="path5585"
   d="M 13.988,3.05 25.684,6.949 25.988,7.05 26.294,6.956 38,3.354 V 33.261 L 26.012,36.95 14.316,33.051 14.012,32.95 13.706,33.044 2,36.646 V 6.739 L 13.988,3.05 M 39,2 26,6 14,2 1,6 v 32 l 13,-4 12,4 13,-4 z"
   style="fill:#4788c7" />
	</g>
</g><path
     inkscape:connector-curvature="0"
     id="path5591"
     d="M 26,42 14,38 V 8 l 12,4 z"
     style="fill:#ffffff" /></g>
<text
   xml:space="preserve"
   style="font-style:normal;font-weight:normal;font-size:10.38160229px;line-height:1.25;font-family:sans-serif;letter-spacing:0px;word-spacing:0px;fill:#000000;fill-opacity:1;stroke:none;stroke-width:0.25954005"
   x="11.259958"
   y="48.414429"
   id="text6153"><tspan
     sodipodi:role="line"
     id="tspan6151"
     x="11.259958"
     y="48.414429"
     style="stroke-width:0.25954005">Soon</tspan></text>
</svg>